{
  "project_info": {
    "project_number": "1053058019327",
    "project_id": "fir-flutter-codelab-9272d",
    "storage_bucket": "fir-flutter-codelab-9272d.appspot.com"
  },
  "client": [
    {
      "client_info": {
        "mobilesdk_app_id": "1:1053058019327:android:85e25d93f151c4e29dc1ca",
        "android_client_info": {
          "package_name": "com.example.gtk_flutter"
        }
      },
      "oauth_client": [
        {
          "client_id": "1053058019327-psr5rc9ir9fkethal61uk3feu6o6ggks.apps.googleusercontent.com",
          "client_type": 3
        }
      ],
      "api_key": [
        {
          "current_key": "AIzaSyCb_Za-PnFOxwU2WGkkB_bwf8P3gvXN3Lw"
        }
      ],
      "services": {
        "appinvite_service": {
          "other_platform_oauth_client": [
            {
              "client_id": "1053058019327-psr5rc9ir9fkethal61uk3feu6o6ggks.apps.googleusercontent.com",
              "client_type": 3
            }
          ]
        }
      }
    }
  ],
  "configuration_version": "1"
}